com\demo\ui\custommodel\LoginModel.class
com\demo\ui\service\EmployeeService.class
com\demo\ui\custommodel\AuthTokenModel.class
com\demo\ui\custommodel\EmployeeModel.class
com\demo\ui\managedbean\LoginController.class
com\demo\ui\util\Constant.class
com\demo\ui\service\LoginService.class
com\demo\ui\managedbean\EmployeeController.class
com\demo\ui\util\AuthTokenInfo.class
